Introducing the tidyr pivot_longer() | Mohamed El Fodil IHADDADEN
…
You see that the dates column should preferably be structured into two columns: A column that we may call time_period and a calumn that we call net_migration_value. With pivot_longer() its extremely easy to do that:

migration %>% pivot_longer(
  
  cols = 3:32,  # The columns that we want to pivot
  
  names_to = "time_period", # the name of the new column name
  
  values_to = "net_migration_value", # the name of the new column value

)

## # A tibble: 7,230 x 4
##    country_code name  time_period net_migration_value
##           <int> <chr> <chr>                     <dbl>
##  1          900 WORLD 1950-1955                     0
##  2          900 WORLD 1955-1960                     0
##  3          900 WORLD 1960-1965                     0
##  4          900 WORLD 1965-1970                     0
##  5          900 WORLD 1970-1975                     0
##  6          900 WORLD 1975-1980                     0
##  7          900 WORLD 1980-1985                     0
##  8          900 WORLD 1985-1990                     0
##  9          900 WORLD 1990-1995                     0
## 10          900 WORLD 1995-2000                     0
## # ... with 7,220 more rows
…
